^C:\USERS\ABGG\DOWNLOADS\ODESK\APPARELL_RECOGNITION\HIERARCHICALBOW\DBOW2LIB\STDAFX.CPP
C:\USERS\ABGG\DOWNLOADS\ODESK\APPARELL_RECOGNITION\HIERARCHICALBOW\DBOW2LIB\DEBUG\DBOW2LIB.PCH
C:\USERS\ABGG\DOWNLOADS\ODESK\APPARELL_RECOGNITION\HIERARCHICALBOW\DBOW2LIB\DEBUG\STDAFX.OBJ
C:\USERS\ABGG\DOWNLOADS\ODESK\APPARELL_RECOGNITION\HIERARCHICALBOW\DBOW2LIB\DEBUG\VC110.PDB
^C:\USERS\ABGG\DOWNLOADS\ODESK\APPARELL_RECOGNITION\HIERARCHICALBOW\DBOW2LIB\BOWVECTOR.CPP|C:\USERS\ABGG\DOWNLOADS\ODESK\APPARELL_RECOGNITION\HIERARCHICALBOW\DBOW2LIB\FBRIEF.CPP|C:\USERS\ABGG\DOWNLOADS\ODESK\APPARELL_RECOGNITION\HIERARCHICALBOW\DBOW2LIB\FEATUREVECTOR.CPP|C:\USERS\ABGG\DOWNLOADS\ODESK\APPARELL_RECOGNITION\HIERARCHICALBOW\DBOW2LIB\FSURF64.CPP|C:\USERS\ABGG\DOWNLOADS\ODESK\APPARELL_RECOGNITION\HIERARCHICALBOW\DBOW2LIB\QUERYRESULTS.CPP|C:\USERS\ABGG\DOWNLOADS\ODESK\APPARELL_RECOGNITION\HIERARCHICALBOW\DBOW2LIB\SCORINGOBJECT.CPP
C:\USERS\ABGG\DOWNLOADS\ODESK\APPARELL_RECOGNITION\HIERARCHICALBOW\DBOW2LIB\DEBUG\BOWVECTOR.OBJ
C:\USERS\ABGG\DOWNLOADS\ODESK\APPARELL_RECOGNITION\HIERARCHICALBOW\DBOW2LIB\DEBUG\FEATUREVECTOR.OBJ
C:\USERS\ABGG\DOWNLOADS\ODESK\APPARELL_RECOGNITION\HIERARCHICALBOW\DBOW2LIB\DEBUG\QUERYRESULTS.OBJ
C:\USERS\ABGG\DOWNLOADS\ODESK\APPARELL_RECOGNITION\HIERARCHICALBOW\DBOW2LIB\DEBUG\FSURF64.OBJ
C:\USERS\ABGG\DOWNLOADS\ODESK\APPARELL_RECOGNITION\HIERARCHICALBOW\DBOW2LIB\DEBUG\SCORINGOBJECT.OBJ
C:\USERS\ABGG\DOWNLOADS\ODESK\APPARELL_RECOGNITION\HIERARCHICALBOW\DBOW2LIB\DEBUG\FBRIEF.OBJ
^C:\USERS\ABGG\DOWNLOADS\ODESK\APPARELL_RECOGNITION\HIERARCHICALBOW\DBOW2LIB\BOWVECTOR.CPP
C:\USERS\ABGG\DOWNLOADS\ODESK\APPARELL_RECOGNITION\HIERARCHICALBOW\DBOW2LIB\DEBUG\VC110.PDB
^C:\USERS\ABGG\DOWNLOADS\ODESK\APPARELL_RECOGNITION\HIERARCHICALBOW\DBOW2LIB\FBRIEF.CPP
C:\USERS\ABGG\DOWNLOADS\ODESK\APPARELL_RECOGNITION\HIERARCHICALBOW\DBOW2LIB\DEBUG\VC110.PDB
^C:\USERS\ABGG\DOWNLOADS\ODESK\APPARELL_RECOGNITION\HIERARCHICALBOW\DBOW2LIB\FEATUREVECTOR.CPP
C:\USERS\ABGG\DOWNLOADS\ODESK\APPARELL_RECOGNITION\HIERARCHICALBOW\DBOW2LIB\DEBUG\VC110.PDB
^C:\USERS\ABGG\DOWNLOADS\ODESK\APPARELL_RECOGNITION\HIERARCHICALBOW\DBOW2LIB\FSURF64.CPP
C:\USERS\ABGG\DOWNLOADS\ODESK\APPARELL_RECOGNITION\HIERARCHICALBOW\DBOW2LIB\DEBUG\VC110.PDB
^C:\USERS\ABGG\DOWNLOADS\ODESK\APPARELL_RECOGNITION\HIERARCHICALBOW\DBOW2LIB\QUERYRESULTS.CPP
C:\USERS\ABGG\DOWNLOADS\ODESK\APPARELL_RECOGNITION\HIERARCHICALBOW\DBOW2LIB\DEBUG\VC110.PDB
^C:\USERS\ABGG\DOWNLOADS\ODESK\APPARELL_RECOGNITION\HIERARCHICALBOW\DBOW2LIB\SCORINGOBJECT.CPP
C:\USERS\ABGG\DOWNLOADS\ODESK\APPARELL_RECOGNITION\HIERARCHICALBOW\DBOW2LIB\DEBUG\VC110.PDB
