^C:\USERS\ABGG\DOWNLOADS\ODESK\APPARELL_RECOGNITION\HIERARCHICALBOW\DBOW2LIB\DEBUG\BOWVECTOR.OBJ|C:\USERS\ABGG\DOWNLOADS\ODESK\APPARELL_RECOGNITION\HIERARCHICALBOW\DBOW2LIB\DEBUG\FBRIEF.OBJ|C:\USERS\ABGG\DOWNLOADS\ODESK\APPARELL_RECOGNITION\HIERARCHICALBOW\DBOW2LIB\DEBUG\FEATUREVECTOR.OBJ|C:\USERS\ABGG\DOWNLOADS\ODESK\APPARELL_RECOGNITION\HIERARCHICALBOW\DBOW2LIB\DEBUG\FSURF64.OBJ|C:\USERS\ABGG\DOWNLOADS\ODESK\APPARELL_RECOGNITION\HIERARCHICALBOW\DBOW2LIB\DEBUG\QUERYRESULTS.OBJ|C:\USERS\ABGG\DOWNLOADS\ODESK\APPARELL_RECOGNITION\HIERARCHICALBOW\DBOW2LIB\DEBUG\SCORINGOBJECT.OBJ|C:\USERS\ABGG\DOWNLOADS\ODESK\APPARELL_RECOGNITION\HIERARCHICALBOW\DBOW2LIB\DEBUG\STDAFX.OBJ
C:\WINDOWS\SYSTEM32\TZRES.DLL
C:\USERS\ABGG\DOWNLOADS\ODESK\APPARELL_RECOGNITION\HIERARCHICALBOW\DBOW2LIB\DEBUG\BOWVECTOR.OBJ
C:\USERS\ABGG\DOWNLOADS\ODESK\APPARELL_RECOGNITION\HIERARCHICALBOW\DBOW2LIB\DEBUG\FBRIEF.OBJ
C:\USERS\ABGG\DOWNLOADS\ODESK\APPARELL_RECOGNITION\HIERARCHICALBOW\DBOW2LIB\DEBUG\FEATUREVECTOR.OBJ
C:\USERS\ABGG\DOWNLOADS\ODESK\APPARELL_RECOGNITION\HIERARCHICALBOW\DBOW2LIB\DEBUG\FSURF64.OBJ
C:\USERS\ABGG\DOWNLOADS\ODESK\APPARELL_RECOGNITION\HIERARCHICALBOW\DBOW2LIB\DEBUG\QUERYRESULTS.OBJ
C:\USERS\ABGG\DOWNLOADS\ODESK\APPARELL_RECOGNITION\HIERARCHICALBOW\DBOW2LIB\DEBUG\SCORINGOBJECT.OBJ
C:\USERS\ABGG\DOWNLOADS\ODESK\APPARELL_RECOGNITION\HIERARCHICALBOW\DBOW2LIB\DEBUG\STDAFX.OBJ
C:\WINDOWS\GLOBALIZATION\SORTING\SORTDEFAULT.NLS
